<?xml version="1.0" encoding="UTF-8"?>
<CustomTab xmlns="http://soap.sforce.com/2006/04/metadata">
    <customObject>true</customObject>
    <description>Network Services HCE Request Form</description>
    <icon>HCE_Logos/HCE_Network_Logo_jpg.jpg</icon>
    <mobileReady>false</mobileReady>
    <motif>Custom269: TV Widescreen</motif>
</CustomTab>
